…
## # A tibble: 6 x 3
##   terms  value id    
##   <chr>  <dbl> <chr> 
## 1 carat  0.799 center
## 2 depth 61.8   center
## 3 table 57.5   center
## 4 x      5.73  center
## 5 y      5.74  center
## 6 z      3.54  center

PCAの内容も勿論確認可能。ただ、ちょっと見辛いですね。

broom::tidy(prep, id = 'pca')

## # A tibble: 36 x 4
##    terms     value component id   
##    <chr>     <dbl> <chr>     <chr>
##  1 carat  0.494    PC1       pca  
##  2 depth -0.000991 PC1       pca  
##  3 table  0.121    PC1       pca  
##  4 x      0.500    PC1       pca  
##  5 y      0.494    PC1       pca  
##  6 z      0.497    PC1       pca  
##  7 carat -0.0451   PC2       pca  
##  8 depth -0.734    PC2       pca  
##  9 table  0.670    PC2       pca  
## 10 x     -0.00861  PC2       pca  
## # … with 26 more rows
…
また、確認対象によってはtidyのS3メソッドとしてオプション引数が定義されています。たとえば recipes:::tidy.step_pca であれば、type引数でデフォルト値は"coef"、因子負荷量ですね。
type = "variance"にすると、各主成分の寄与率を確認できます。

broom::tidy(prep, id = 'pca', type = "variance")

## # A tibble: 24 x 4
##    terms                 value component id   
##    <chr>                 <dbl>     <int> <chr>
##  1 variance            3.95            1 pca  
##  2 variance            1.28            2 pca  
##  3 variance            0.683           3 pca  
##  4 variance            0.0494          4 pca  
##  5 variance            0.0264          5 pca  
##  6 variance            0.00624         6 pca  
##  7 cumulative variance 3.95            1 pca  
##  8 cumulative variance 5.23            2 pca  
##  9 cumulative variance 5.92            3 pca  
## 10 cumulative variance 5.97            4 pca  
## # … with 14 more rows
…
