…
Longer

pivot_longer() はデータセットの行を増やし，列を減らすことで 長く (longer) する．開発者は「長い形式 (long form)」という呼び方は合理的ではないと考えている．なぜなら，長さは相対的なもので例えばデータセットの A と B のどちらが長いといった言い方しかできないからだ．

pivot_longer() は野生のデータセットに対してよく適用されるもので，分析を楽にするためというよりは，データの入力や比較を適切に行うために用いられる．次の章からは， pivot_longer() の使い方を現実にありうる様々なデータセットを用いて紹介する．

列の名前が文字列データに相当する場合

relig_income データセットは人々の宗教や年収について集計した結果をカウントデータとして記録している．

relig_income
#> # A tibble: 18 x 11
#>    religion `<$10k` `$10-20k` `$20-30k` `$30-40k` `$40-50k` `$50-75k`
#>    <chr>      <dbl>     <dbl>     <dbl>     <dbl>     <dbl>     <dbl>
#>  1 Agnostic      27        34        60        81        76       137
#>  2 Atheist       12        27        37        52        35        70
#>  3 Buddhist      27        21        30        34        33        58
#>  4 Catholic     418       617       732       670       638      1116
#>  5 Don’t k…      15        14        15        11        10        35
#>  6 Evangel…     575       869      1064       982       881      1486
#>  7 Hindu          1         9         7         9        11        34
#>  8 Histori…     228       244       236       238       197       223
#>  9 Jehovah…      20        27        24        24        21        30
#> 10 Jewish        19        19        25        25        30        95
#> # … with 8 more rows, and 4 more variables: `$75-100k` <dbl>,
#> #   `$100-150k` <dbl>, `>150k` <dbl>, `Don't know/refused` <dbl>
データセットには3つの変数が含まれる．

religion は行ごとに記録されている

income は複数の列の名前として記録されている

count はセルごとの値として記録されている

pivot_longer() を使って整形してみよう．

relig_income %>% 
  pivot_longer(-religion, names_to = "income", values_to = "count")
#> Warning: `vec_type_common()` has been renamed to `vec_ptype_common()`.
#> This warning is displayed once per session.
#> # A tibble: 180 x 3
#>    religion income             count
#>    <chr>    <chr>              <dbl>
#>  1 Agnostic <$10k                 27
#>  2 Agnostic $10-20k               34
#>  3 Agnostic $20-30k               60
#>  4 Agnostic $30-40k               81
#>  5 Agnostic $40-50k               76
#>  6 Agnostic $50-75k              137
#>  7 Agnostic $75-100k             122
#>  8 Agnostic $100-150k            109
#>  9 Agnostic >150k                 84
#> 10 Agnostic Don't know/refused    96
#> # … with 170 more rows
…
第二引数は整形対象となる列を指定する．今回は religion 以外の全ての列だ．

names_to 引数には，列の名前として記録されたデータに変数としての名前を与える．今回なら income だ．

values_to 引数にはセルの値として記録されているデータに変数としての名前を与える．今回なら count だ．

names_to と values_to のどちらによって作られる列も relig_income には含まれていないため，これらの引数には引用符で囲った文字列を指定する.

列の名前が数値データに相当する場合

billboard データセットは2000年のビルボードランキングを記録している．データの形式としては relig_income と似ているが，列の名前に記録されたデータは文字列ではなく数値そのものである．

billboard
#> # A tibble: 317 x 79
#>    artist track date.entered   wk1   wk2   wk3   wk4   wk5   wk6   wk7
#>    <chr>  <chr> <date>       <dbl> <dbl> <dbl> <dbl> <dbl> <dbl> <dbl>
#>  1 2 Pac  Baby… 2000-02-26      87    82    72    77    87    94    99
#>  2 2Ge+h… The … 2000-09-02      91    87    92    NA    NA    NA    NA
#>  3 3 Doo… Kryp… 2000-04-08      81    70    68    67    66    57    54
#>  4 3 Doo… Loser 2000-10-21      76    76    72    69    67    65    55
#>  5 504 B… Wobb… 2000-04-15      57    34    25    17    17    31    36
#>  6 98^0   Give… 2000-08-19      51    39    34    26    26    19     2
#>  7 A*Tee… Danc… 2000-07-08      97    97    96    95   100    NA    NA
#>  8 Aaliy… I Do… 2000-01-29      84    62    51    41    38    35    35
#>  9 Aaliy… Try … 2000-03-18      59    53    38    28    21    18    16
#> 10 Adams… Open… 2000-08-26      76    76    74    69    68    67    61
#> # … with 307 more rows, and 69 more variables: wk8 <dbl>, wk9 <dbl>,
#> #   wk10 <dbl>, wk11 <dbl>, wk12 <dbl>, wk13 <dbl>, wk14 <dbl>,
#> #   wk15 <dbl>, wk16 <dbl>, wk17 <dbl>, wk18 <dbl>, wk19 <dbl>,
#> #   wk20 <dbl>, wk21 <dbl>, wk22 <dbl>, wk23 <dbl>, wk24 <dbl>,
#> #   wk25 <dbl>, wk26 <dbl>, wk27 <dbl>, wk28 <dbl>, wk29 <dbl>,
#> #   wk30 <dbl>, wk31 <dbl>, wk32 <dbl>, wk33 <dbl>, wk34 <dbl>,
#> #   wk35 <dbl>, wk36 <dbl>, wk37 <dbl>, wk38 <dbl>, wk39 <dbl>,
#> #   wk40 <dbl>, wk41 <dbl>, wk42 <dbl>, wk43 <dbl>, wk44 <dbl>,
#> #   wk45 <dbl>, wk46 <dbl>, wk47 <dbl>, wk48 <dbl>, wk49 <dbl>,
…
まずは relig_income dataset と同様に billboard データセットを整形してみよう．列名は week という変数に，セルの値は rank という変数にしよう．加えて，整形時に欠損値が出たらその行を消去するように values_drop_na を使おう．必ずしも全ての曲が76週間ランキング圏内にあるわけではないため，入力したデータをvalues_drop_naを使わず整形すると，不必要に自明な NA が強制的に生じてしまう．

billboard %>% 
  pivot_longer(
    cols = starts_with("wk"), 
    names_to = "week", 
    values_to = "rank",
    values_drop_na = TRUE
  )
#> # A tibble: 5,307 x 5
#>    artist  track                   date.entered week   rank
#>    <chr>   <chr>                   <date>       <chr> <dbl>
#>  1 2 Pac   Baby Don't Cry (Keep... 2000-02-26   wk1      87
#>  2 2 Pac   Baby Don't Cry (Keep... 2000-02-26   wk2      82
#>  3 2 Pac   Baby Don't Cry (Keep... 2000-02-26   wk3      72
#>  4 2 Pac   Baby Don't Cry (Keep... 2000-02-26   wk4      77
#>  5 2 Pac   Baby Don't Cry (Keep... 2000-02-26   wk5      87
#>  6 2 Pac   Baby Don't Cry (Keep... 2000-02-26   wk6      94
#>  7 2 Pac   Baby Don't Cry (Keep... 2000-02-26   wk7      99
#>  8 2Ge+her The Hardest Part Of ... 2000-09-02   wk1      91
#>  9 2Ge+her The Hardest Part Of ... 2000-09-02   wk2      87
#> 10 2Ge+her The Hardest Part Of ... 2000-09-02   wk3      92
#> # … with 5,297 more rows

各曲が何週間ランキング入りしていたか簡単に分かると嬉しいが，それには変数 week を整数に直す必要がある．これには2つの引数を追加で指定する必要がある．まず names_prefix 引数によって接頭辞の wk を消した上で，
names_ptypes 引数によって week が整数であることを指定する1．

billboard %>% 
  pivot_longer(
    cols = starts_with("wk"), 
    names_to = "week", 
    names_prefix = "wk",
    names_ptypes = list(week = integer()),
    values_to = "rank",
    values_drop_na = TRUE
  )
#> # A tibble: 5,307 x 5
#>    artist  track                   date.entered  week  rank
#>    <chr>   <chr>                   <date>       <int> <dbl>
#>  1 2 Pac   Baby Don't Cry (Keep... 2000-02-26       1    87
#>  2 2 Pac   Baby Don't Cry (Keep... 2000-02-26       2    82
#>  3 2 Pac   Baby Don't Cry (Keep... 2000-02-26       3    72
#>  4 2 Pac   Baby Don't Cry (Keep... 2000-02-26       4    77
#>  5 2 Pac   Baby Don't Cry (Keep... 2000-02-26       5    87
#>  6 2 Pac   Baby Don't Cry (Keep... 2000-02-26       6    94
#>  7 2 Pac   Baby Don't Cry (Keep... 2000-02-26       7    99
#>  8 2Ge+her The Hardest Part Of ... 2000-09-02       1    91
#>  9 2Ge+her The Hardest Part Of ... 2000-09-02       2    87
#> 10 2Ge+her The Hardest Part Of ... 2000-09-02       3    92
#> # … with 5,297 more rows

列名に複数の変数がある場合

列名に複数の変数が詰めこまれていると，整形はより大変なものになる．例えば who データセットを見てみよう．

who
#> # A tibble: 7,240 x 60
#>    country iso2  iso3   year new_sp_m014 new_sp_m1524 new_sp_m2534
#>    <chr>   <chr> <chr> <int>       <int>        <int>        <int>
#>  1 Afghan… AF    AFG    1980          NA           NA           NA
#>  2 Afghan… AF    AFG    1981          NA           NA           NA
#>  3 Afghan… AF    AFG    1982          NA           NA           NA
#>  4 Afghan… AF    AFG    1983          NA           NA           NA
#>  5 Afghan… AF    AFG    1984          NA           NA           NA
#>  6 Afghan… AF    AFG    1985          NA           NA           NA
#>  7 Afghan… AF    AFG    1986          NA           NA           NA
#>  8 Afghan… AF    AFG    1987          NA           NA           NA
#>  9 Afghan… AF    AFG    1988          NA           NA           NA
#> 10 Afghan… AF    AFG    1989          NA           NA           NA
#> # … with 7,230 more rows, and 53 more variables: new_sp_m3544 <int>,
#> #   new_sp_m4554 <int>, new_sp_m5564 <int>, new_sp_m65 <int>,
#> #   new_sp_f014 <int>, new_sp_f1524 <int>, new_sp_f2534 <int>,
#> #   new_sp_f3544 <int>, new_sp_f4554 <int>, new_sp_f5564 <int>,
#> #   new_sp_f65 <int>, new_sn_m014 <int>, new_sn_m1524 <int>,
#> #   new_sn_m2534 <int>, new_sn_m3544 <int>, new_sn_m4554 <int>,
#> #   new_sn_m5564 <int>, new_sn_m65 <int>, new_sn_f014 <int>,
#> #   new_sn_f1524 <int>, new_sn_f2534 <int>, new_sn_f3544 <int>,
#> #   new_sn_f4554 <int>, new_sn_f5564 <int>, new_sn_f65 <int>,
…
m/f は性別を示す．

014/1524/2535/3544/4554/65 は年齢層を示す2．

今回は names_pattern がしっくりくるだろう．
names_pattern は extract と似た操作性を持ち，
() を用いてグループ化した正規表現を指定することで，列名からグループとして各変数を取り出すことができる．

who %>% pivot_longer(
  cols = new_sp_m014:newrel_f65,
  names_to = c("diagnosis", "gender", "age"), 
  names_pattern = "new_?(.*)_(.)(.*)",
  values_to = "count"
)
#> # A tibble: 405,440 x 8
#>    country     iso2  iso3   year diagnosis gender age   count
#>    <chr>       <chr> <chr> <int> <chr>     <chr>  <chr> <int>
#>  1 Afghanistan AF    AFG    1980 sp        m      014      NA
#>  2 Afghanistan AF    AFG    1980 sp        m      1524     NA
#>  3 Afghanistan AF    AFG    1980 sp        m      2534     NA
#>  4 Afghanistan AF    AFG    1980 sp        m      3544     NA
#>  5 Afghanistan AF    AFG    1980 sp        m      4554     NA
#>  6 Afghanistan AF    AFG    1980 sp        m      5564     NA
#>  7 Afghanistan AF    AFG    1980 sp        m      65       NA
#>  8 Afghanistan AF    AFG    1980 sp        f      014      NA
#>  9 Afghanistan AF    AFG    1980 sp        f      1524     NA
#> 10 Afghanistan AF    AFG    1980 sp        f      2534     NA
#> # … with 405,430 more rows
…
who %>% pivot_longer(
  cols = new_sp_m014:newrel_f65,
  names_to = c("diagnosis", "gender", "age"), 
  names_pattern = "new_?(.*)_(.)(.*)",
  names_ptypes = list(
    gender = factor(levels = c("f", "m")),
    age = factor(
      levels = c("014", "1524", "2534", "3544", "4554", "5564", "65"), 
      ordered = TRUE
    )
  ),
  values_to = "count"
)
#> # A tibble: 405,440 x 8
#>    country     iso2  iso3   year diagnosis gender age   count
#>    <chr>       <chr> <chr> <int> <chr>     <fct>  <ord> <int>
#>  1 Afghanistan AF    AFG    1980 sp        m      014      NA
#>  2 Afghanistan AF    AFG    1980 sp        m      1524     NA
#>  3 Afghanistan AF    AFG    1980 sp        m      2534     NA
#>  4 Afghanistan AF    AFG    1980 sp        m      3544     NA
#>  5 Afghanistan AF    AFG    1980 sp        m      4554     NA
#>  6 Afghanistan AF    AFG    1980 sp        m      5564     NA
#>  7 Afghanistan AF    AFG    1980 sp        m      65       NA
#>  8 Afghanistan AF    AFG    1980 sp        f      014      NA
#>  9 Afghanistan AF    AFG    1980 sp        f      1524     NA
#> 10 Afghanistan AF    AFG    1980 sp        f      2534     NA
#> # … with 405,430 more rows
…
このデータセットは Anscombe’s quartet を構成する4対の変数から成る (x1 と y1，x2 と y2，など)．これら4つのデータセットは内容が大きく異なるにも拘らず同じ要約統計量を示す(平均，標準偏差，相関など)．これを set, x, y から成るデータセットに整形してみる．

anscombe %>% 
  pivot_longer(everything(), 
    names_to = c(".value", "set"), 
    names_pattern = "(.)(.)"
  ) %>% 
  arrange(set)
#> # A tibble: 44 x 3
#>    set       x     y
#>    <chr> <dbl> <dbl>
#>  1 1        10  8.04
#>  2 1         8  6.95
#>  3 1        13  7.58
#>  4 1         9  8.81
#>  5 1        11  8.33
#>  6 1        14  9.96
#>  7 1         6  7.24
#>  8 1         4  4.26
#>  9 1        12 10.8 
#> 10 1         7  4.82
#> # … with 34 more rows
…
