…
importas関数を用いると、複数のパッケージの略称を一度に定義できます。例えばdplyrパッケージをdp、tidyrパッケージをtdなどと略してみましょう。

importas(dp = dplyr, td = tidyr, ts = tidyselect)

# dplyrを読み込んだわけではないので、
# パイプ演算子を明示的に読み込む必要がある
`%>%` <- magrittr::`%>%`

iris %>%
  head %>%
  dp$select(-Species) %>%
  td$pivot_longer(ts$everything())

## # A tibble: 24 x 2
##    name         value
##    <chr>        <dbl>
##  1 Sepal.Length   5.1
##  2 Sepal.Width    3.5
##  3 Petal.Length   1.4
##  4 Petal.Width    0.2
##  5 Sepal.Length   4.9
##  6 Sepal.Width    3  
##  7 Petal.Length   1.4
##  8 Petal.Width    0.2
##  9 Sepal.Length   4.7
## 10 Sepal.Width    3.2
## # … with 14 more rows
…
